<?xml version="1.0" encoding="UTF-8" standalone="no"?>
<!-- Created with Inkscape (http://www.inkscape.org/) -->

<svg
   width="656"
   height="535"
   viewBox="0 0 656 535"
   version="1.1"
   id="svg1"
   xml:space="preserve"
   inkscape:version="1.3.2 (091e20e, 2023-11-25, custom)"
   sodipodi:docname="mode-gen.svg"
   inkscape:export-filename="mode-gen.svg"
   inkscape:export-xdpi="96"
   inkscape:export-ydpi="96"
   xmlns:inkscape="http://www.inkscape.org/namespaces/inkscape"
   xmlns:sodipodi="http://sodipodi.sourceforge.net/DTD/sodipodi-0.dtd"
   xmlns:xlink="http://www.w3.org/1999/xlink"
   xmlns="http://www.w3.org/2000/svg"
   xmlns:svg="http://www.w3.org/2000/svg"><sodipodi:namedview
     id="namedview1"
     pagecolor="#ffffff"
     bordercolor="#000000"
     borderopacity="0.25"
     inkscape:showpageshadow="2"
     inkscape:pageopacity="0.0"
     inkscape:pagecheckerboard="0"
     inkscape:deskcolor="#d1d1d1"
     inkscape:document-units="mm"
     inkscape:clip-to-page="false"
     inkscape:zoom="0.7647328"
     inkscape:cx="312.52746"
     inkscape:cy="370.71772"
     inkscape:window-width="1920"
     inkscape:window-height="1013"
     inkscape:window-x="-9"
     inkscape:window-y="-9"
     inkscape:window-maximized="1"
     inkscape:current-layer="layer1"
     showgrid="false" /><defs
     id="defs1"><rect
       x="143.05498"
       y="164.64003"
       width="37.461594"
       height="37.405231"
       id="rect4" /></defs><g
     inkscape:label="Layer 1"
     inkscape:groupmode="layer"
     id="layer1"><image
       width="656"
       height="535"
       preserveAspectRatio="none"
       xlink:href="mode-gen.png"
       id="image1"
       x="0"
       y="0" /><circle
       style="fill:#ff4853;fill-opacity:1;stroke:#ff0000;stroke-width:4;stroke-linecap:round;stroke-linejoin:round;stroke-dasharray:none;stroke-opacity:1"
       id="path3-57"
       r="26.479837"
       cy="229.9371"
       cx="243.04253" /><circle
       style="fill:#ff4853;fill-opacity:1;stroke:#ff0000;stroke-width:4;stroke-linecap:round;stroke-linejoin:round;stroke-dasharray:none;stroke-opacity:1"
       id="path3-57-3"
       r="26.479837"
       cy="323.4101"
       cx="47.700146" /><circle
       style="fill:#ff4853;fill-opacity:1;stroke:#ff0000;stroke-width:4;stroke-linecap:round;stroke-linejoin:round;stroke-dasharray:none;stroke-opacity:1"
       id="path3-52"
       r="26.479837"
       cy="141.18886"
       cx="512.05518" /><rect
       style="fill:none;stroke:#ff0000;stroke-width:4;stroke-linecap:round;stroke-linejoin:round;stroke-dasharray:none;stroke-opacity:1"
       id="rect3"
       width="127.50843"
       height="52.959671"
       x="74.584679"
       y="203.45726"
       ry="26.479836"
       rx="26.479836" /><rect
       style="fill:none;stroke:#ff0000;stroke-width:4;stroke-linecap:round;stroke-linejoin:round;stroke-dasharray:none;stroke-opacity:1"
       id="rect3-2"
       width="581.50946"
       height="52.959686"
       x="21.220308"
       y="296.93027"
       ry="26.479836"
       rx="26.479836" /><rect
       style="fill:none;stroke:#ff0000;stroke-width:4;stroke-linecap:round;stroke-linejoin:round;stroke-dasharray:none;stroke-opacity:1"
       id="rect3-8"
       width="578.73547"
       height="52.959686"
       x="23.603224"
       y="439.431"
       ry="26.479836"
       rx="26.479836" /><rect
       style="fill:none;stroke:#ff0000;stroke-width:4;stroke-linecap:round;stroke-linejoin:round;stroke-dasharray:none;stroke-opacity:1"
       id="rect3-9"
       width="175.59"
       height="52.959671"
       x="216.56268"
       y="203.45726"
       ry="26.479836"
       rx="26.479836" /><circle
       style="fill:#ff4853;fill-opacity:1;stroke:#ff0000;stroke-width:4;stroke-linecap:round;stroke-linejoin:round;stroke-dasharray:none;stroke-opacity:1"
       id="path3"
       r="26.479837"
       cy="141.18884"
       cx="142.03748" /><circle
       style="fill:#ff4853;fill-opacity:1;stroke:#ff0000;stroke-width:4;stroke-linecap:round;stroke-linejoin:round;stroke-dasharray:none;stroke-opacity:1"
       id="path3-2"
       r="26.479837"
       cy="465.91083"
       cx="50.083061" /><text
       xml:space="preserve"
       id="text4"
       style="font-style:normal;font-variant:normal;font-weight:normal;font-stretch:normal;font-size:37.3333px;font-family:Arial;-inkscape-font-specification:'Arial, Normal';font-variant-ligatures:normal;font-variant-caps:normal;font-variant-numeric:normal;font-variant-east-asian:normal;white-space:pre;fill:#ffffff;fill-opacity:1;stroke:#ff0000;stroke-width:0;stroke-linecap:round;stroke-linejoin:round;stroke-dasharray:none;stroke-opacity:1"
       x="39.674187"
       y="478.86264"><tspan
         sodipodi:role="line"
         id="tspan7"
         x="39.674187"
         y="478.86264">5</tspan></text><text
       xml:space="preserve"
       id="text4-3"
       style="font-style:normal;font-variant:normal;font-weight:normal;font-stretch:normal;font-size:37.3333px;font-family:Arial;-inkscape-font-specification:'Arial, Normal';font-variant-ligatures:normal;font-variant-caps:normal;font-variant-numeric:normal;font-variant-east-asian:normal;white-space:pre;fill:#ffffff;fill-opacity:1;stroke:#ff0000;stroke-width:0;stroke-linecap:round;stroke-linejoin:round;stroke-dasharray:none;stroke-opacity:1"
       x="37.984081"
       y="336.77206"><tspan
         sodipodi:role="line"
         id="tspan11"
         x="37.984081"
         y="336.77206">4</tspan></text><text
       xml:space="preserve"
       id="text4-0"
       style="font-style:normal;font-variant:normal;font-weight:normal;font-stretch:normal;font-size:37.3333px;font-family:Arial;-inkscape-font-specification:'Arial, Normal';font-variant-ligatures:normal;font-variant-caps:normal;font-variant-numeric:normal;font-variant-east-asian:normal;white-space:pre;fill:#ffffff;fill-opacity:1;stroke:#ff0000;stroke-width:0;stroke-linecap:round;stroke-linejoin:round;stroke-dasharray:none;stroke-opacity:1"
       x="232.72484"
       y="243.11679"><tspan
         sodipodi:role="line"
         id="tspan10"
         x="232.72484"
         y="243.11679">3</tspan></text><text
       xml:space="preserve"
       id="text4-7"
       style="font-style:normal;font-variant:normal;font-weight:normal;font-stretch:normal;font-size:37.3333px;font-family:Arial;-inkscape-font-specification:'Arial, Normal';font-variant-ligatures:normal;font-variant-caps:normal;font-variant-numeric:normal;font-variant-east-asian:normal;white-space:pre;fill:#ffffff;fill-opacity:1;stroke:#ff0000;stroke-width:0;stroke-linecap:round;stroke-linejoin:round;stroke-dasharray:none;stroke-opacity:1"
       x="502.09442"
       y="154.60553"><tspan
         sodipodi:role="line"
         id="tspan9"
         x="502.09442"
         y="154.60553">2</tspan></text><text
       xml:space="preserve"
       id="text4-4"
       style="font-style:normal;font-variant:normal;font-weight:normal;font-stretch:normal;font-size:37.3333px;font-family:Arial;-inkscape-font-specification:'Arial, Normal';font-variant-ligatures:normal;font-variant-caps:normal;font-variant-numeric:normal;font-variant-east-asian:normal;white-space:pre;fill:#ffffff;fill-opacity:1;stroke:#ff0000;stroke-width:0;stroke-linecap:round;stroke-linejoin:round;stroke-dasharray:none;stroke-opacity:1"
       x="131.6286"
       y="154.14066"><tspan
         sodipodi:role="line"
         id="tspan8"
         x="131.6286"
         y="154.14066">1</tspan></text><path
       style="fill:none;fill-opacity:1;stroke:#ff0000;stroke-width:4;stroke-linecap:round;stroke-linejoin:round;stroke-dasharray:none;stroke-opacity:1"
       d="m 142.03748,203.45726 -10e-6,-35.78858"
       id="path4-9"
       sodipodi:nodetypes="cc" /><rect
       style="fill:none;stroke:#ff0000;stroke-width:4;stroke-linecap:round;stroke-linejoin:round;stroke-dasharray:none;stroke-opacity:1"
       id="rect3-0"
       width="133.05634"
       height="52.959656"
       x="451.99954"
       y="203.45728"
       ry="26.479828"
       rx="26.479836" /><path
       style="fill:none;fill-opacity:1;stroke:#ff0000;stroke-width:4;stroke-linecap:round;stroke-linejoin:round;stroke-dasharray:none;stroke-opacity:1"
       d="m 512.05519,203.45728 -1e-5,-35.78858"
       id="path4-9-9"
       sodipodi:nodetypes="cc" /></g></svg>
