<?xml version="1.0" encoding="UTF-8" standalone="no"?>
<!-- Created with Inkscape (http://www.inkscape.org/) -->

<svg
   width="656"
   height="536"
   viewBox="0 0 656 536"
   version="1.1"
   id="svg1"
   xml:space="preserve"
   inkscape:version="1.3.2 (091e20e, 2023-11-25, custom)"
   sodipodi:docname="mode-volt.svg"
   inkscape:export-filename="mode-volt.svg"
   inkscape:export-xdpi="96"
   inkscape:export-ydpi="96"
   xmlns:inkscape="http://www.inkscape.org/namespaces/inkscape"
   xmlns:sodipodi="http://sodipodi.sourceforge.net/DTD/sodipodi-0.dtd"
   xmlns:xlink="http://www.w3.org/1999/xlink"
   xmlns="http://www.w3.org/2000/svg"
   xmlns:svg="http://www.w3.org/2000/svg"><sodipodi:namedview
     id="namedview1"
     pagecolor="#ffffff"
     bordercolor="#000000"
     borderopacity="0.25"
     inkscape:showpageshadow="2"
     inkscape:pageopacity="0.0"
     inkscape:pagecheckerboard="0"
     inkscape:deskcolor="#d1d1d1"
     inkscape:document-units="mm"
     inkscape:clip-to-page="false"
     inkscape:zoom="1.0814955"
     inkscape:cx="378.18003"
     inkscape:cy="280.62992"
     inkscape:window-width="1920"
     inkscape:window-height="1013"
     inkscape:window-x="-9"
     inkscape:window-y="-9"
     inkscape:window-maximized="1"
     inkscape:current-layer="layer1"
     showgrid="false" /><defs
     id="defs1"><rect
       x="143.05498"
       y="164.64003"
       width="37.461594"
       height="37.405231"
       id="rect4" /></defs><g
     inkscape:label="Layer 1"
     inkscape:groupmode="layer"
     id="layer1"><image
       width="656"
       height="536"
       preserveAspectRatio="none"
       xlink:href="mode-volt.png"
       id="image1"
       x="0"
       y="0" /><circle
       style="fill:#ff4853;fill-opacity:1;stroke:#ff0000;stroke-width:4;stroke-linecap:round;stroke-linejoin:round;stroke-dasharray:none;stroke-opacity:1"
       id="path3-57"
       r="26.479837"
       cy="354.17584"
       cx="312.60727" /><circle
       style="fill:#ff4853;fill-opacity:1;stroke:#ff0000;stroke-width:4;stroke-linecap:round;stroke-linejoin:round;stroke-dasharray:none;stroke-opacity:1"
       id="path3-57-3"
       r="26.479837"
       cy="450.03247"
       cx="100.94254" /><circle
       style="fill:#ff4853;fill-opacity:1;stroke:#ff0000;stroke-width:4;stroke-linecap:round;stroke-linejoin:round;stroke-dasharray:none;stroke-opacity:1"
       id="path3-52"
       r="26.479837"
       cy="218.13618"
       cx="221.09584" /><rect
       style="fill:none;stroke:#ff0000;stroke-width:4;stroke-linecap:round;stroke-linejoin:round;stroke-dasharray:none;stroke-opacity:1"
       id="rect3"
       width="225.56898"
       height="52.959671"
       x="194.616"
       y="48.982788"
       ry="26.479836" /><rect
       style="fill:none;stroke:#ff0000;stroke-width:4;stroke-linecap:round;stroke-linejoin:round;stroke-dasharray:none;stroke-opacity:1"
       id="rect3-9"
       width="225.56898"
       height="52.959671"
       x="194.616"
       y="191.65636"
       ry="26.479836" /><rect
       style="fill:none;stroke:#ff0000;stroke-width:4;stroke-linecap:round;stroke-linejoin:round;stroke-dasharray:none;stroke-opacity:1"
       id="rect3-1"
       width="124.62994"
       height="52.959686"
       x="286.12744"
       y="327.69601"
       ry="26.479843"
       rx="26.479843" /><circle
       style="fill:#ff4853;fill-opacity:1;stroke:#ff0000;stroke-width:4;stroke-linecap:round;stroke-linejoin:round;stroke-dasharray:none;stroke-opacity:1"
       id="path3"
       r="26.479837"
       cy="75.462624"
       cx="221.09584" /><text
       xml:space="preserve"
       id="text4-3"
       style="font-style:normal;font-variant:normal;font-weight:normal;font-stretch:normal;font-size:37.3333px;font-family:Arial;-inkscape-font-specification:'Arial, Normal';font-variant-ligatures:normal;font-variant-caps:normal;font-variant-numeric:normal;font-variant-east-asian:normal;white-space:pre;fill:#ffffff;fill-opacity:1;stroke:#ff0000;stroke-width:0;stroke-linecap:round;stroke-linejoin:round;stroke-dasharray:none;stroke-opacity:1"
       x="91.226471"
       y="463.39444"><tspan
         sodipodi:role="line"
         id="tspan11"
         x="91.226471"
         y="463.39444">4</tspan></text><text
       xml:space="preserve"
       id="text4-0"
       style="font-style:normal;font-variant:normal;font-weight:normal;font-stretch:normal;font-size:37.3333px;font-family:Arial;-inkscape-font-specification:'Arial, Normal';font-variant-ligatures:normal;font-variant-caps:normal;font-variant-numeric:normal;font-variant-east-asian:normal;white-space:pre;fill:#ffffff;fill-opacity:1;stroke:#ff0000;stroke-width:0;stroke-linecap:round;stroke-linejoin:round;stroke-dasharray:none;stroke-opacity:1"
       x="302.28958"
       y="367.35553"><tspan
         sodipodi:role="line"
         id="tspan10"
         x="302.28958"
         y="367.35553">3</tspan></text><text
       xml:space="preserve"
       id="text4-7"
       style="font-style:normal;font-variant:normal;font-weight:normal;font-stretch:normal;font-size:37.3333px;font-family:Arial;-inkscape-font-specification:'Arial, Normal';font-variant-ligatures:normal;font-variant-caps:normal;font-variant-numeric:normal;font-variant-east-asian:normal;white-space:pre;fill:#ffffff;fill-opacity:1;stroke:#ff0000;stroke-width:0;stroke-linecap:round;stroke-linejoin:round;stroke-dasharray:none;stroke-opacity:1"
       x="211.13509"
       y="231.55286"><tspan
         sodipodi:role="line"
         id="tspan9"
         x="211.13509"
         y="231.55286">2</tspan></text><text
       xml:space="preserve"
       id="text4-4"
       style="font-style:normal;font-variant:normal;font-weight:normal;font-stretch:normal;font-size:37.3333px;font-family:Arial;-inkscape-font-specification:'Arial, Normal';font-variant-ligatures:normal;font-variant-caps:normal;font-variant-numeric:normal;font-variant-east-asian:normal;white-space:pre;fill:#ffffff;fill-opacity:1;stroke:#ff0000;stroke-width:0;stroke-linecap:round;stroke-linejoin:round;stroke-dasharray:none;stroke-opacity:1"
       x="210.68697"
       y="88.414436"><tspan
         sodipodi:role="line"
         id="tspan8"
         x="210.68697"
         y="88.414436">1</tspan></text><rect
       style="fill:none;stroke:#ff0000;stroke-width:4;stroke-linecap:round;stroke-linejoin:round;stroke-dasharray:none;stroke-opacity:1"
       id="rect3-2"
       width="471.4801"
       height="52.959686"
       x="74.462708"
       y="423.55264"
       ry="26.479843"
       rx="26.479843" /></g></svg>
